{
  "swagger": "2.0",
  "info": {
    "title": "API V1",
    "version": "v1"
  },
  "definitions": {
    "createUser": {
      "type": "object",
      "properties": {
        "data": {
          "type": "object",
          "properties": {
            "user": {
              "type": "object",
              "required": [
                "email",
                "password",
                "password_confirm"
              ],
              "properties": {
                "email": {
                  "type": "string",
                  "example": "test@user.com"
                },
                "password": {
                  "type": "string",
                  "example": "password"
                },
                "password_confirmation": {
                  "type": "string",
                  "example": "password"
                }
              }
            }
          }
        }
      }
    },
    "updateUser": {
      "type": "object",
      "properties": {
        "data": {
          "type": "object",
          "properties": {
            "user": {
              "type": "object",
              "required": [
                "id"
              ],
              "properties": {
                "id": {
                  "type": "integer",
                  "example": "1"
                },
                "email": {
                  "type": "string",
                  "example": "test@user.com"
                },
                "first_name": {
                  "type": "string",
                  "example": "John"
                },
                "last_name": {
                  "type": "string",
                  "example": "Doe"
                },
                "nickname": {
                  "type": "string",
                  "example": "johndoe"
                },
                "age": {
                  "type": "integer",
                  "example": "24"
                },
                "country": {
                  "type": "string",
                  "example": "France"
                },
                "city": {
                  "type": "string",
                  "example": "Paris"
                },
                "address": {
                  "type": "string",
                  "example": "15 rue de la science"
                },
                "phone_number": {
                  "type": "string",
                  "example": "+33654637383"
                },
                "bio": {
                  "type": "string",
                  "example": "This is my bio, it's great!"
                },
                "interests": {
                  "type": "array",
                  "items": "string",
                  "example": "[\"Zero hunger\", \"No poverty\"]"
                },
                "skills": {
                  "type": "array",
                  "items": "string",
                  "example": "[\"Python\", \"3D printing\"]"
                }
              }
            }
          }
        }
      }
    },
    "followUser": {
      "type": "object",
      "properties": {
        "data": {
          "type": "object",
          "properties": {
            "user": {
              "type": "object",
              "required": [
                "other_user_id"
              ],
              "properties": {
                "other_user_id": {
                  "type": "integer",
                  "example": "1"
                }
              }
            }
          }
        }
      }
    },
    "unfollowUser": {
      "type": "object",
      "properties": {
        "data": {
          "type": "object",
          "properties": {
            "user": {
              "type": "object",
              "required": [
                "other_user_id"
              ],
              "properties": {
                "other_user_id": {
                  "type": "integer",
                  "example": "1"
                }
              }
            }
          }
        }
      }
    }
  },
  "paths": {
    "/api/users": {
      "get": {
        "responses": {
          "200": {
            "examples": {
              "application/json": [
                {
                  "id": 4,
                  "email": "test4@user.com",
                  "first_name": "firstname4",
                  "last_name": "lastname4",
                  "nickname": "nichname4",
                  "age": "9.0",
                  "country": "France",
                  "city": "Paris",
                  "address": "4 rue du test",
                  "phone_number": null,
                  "bio": "4 bio is a bio",
                  "status": null,
                  "sign_in_count": 0,
                  "confirmed_at": "2019-03-24T17:33:47.830Z",
                  "interests": [

                  ],
                  "skills": [

                  ]
                },
                {
                  "id": 5,
                  "email": "test5@user.com",
                  "first_name": "firstname5",
                  "last_name": "lastname5",
                  "nickname": "nichname5",
                  "age": "11.0",
                  "country": "France",
                  "city": "Paris",
                  "address": "5 rue du test",
                  "phone_number": null,
                  "bio": "5 bio is a bio",
                  "status": null,
                  "sign_in_count": 0,
                  "confirmed_at": "2019-03-24T17:33:48.084Z",
                  "interests": [

                  ],
                  "skills": [

                  ]
                },
                {
                  "id": 6,
                  "email": "test6@user.com",
                  "first_name": "firstname6",
                  "last_name": "lastname6",
                  "nickname": "nichname6",
                  "age": "5.0",
                  "country": "France",
                  "city": "Paris",
                  "address": "6 rue du test",
                  "phone_number": null,
                  "bio": "6 bio is a bio",
                  "status": null,
                  "sign_in_count": 0,
                  "confirmed_at": "2019-03-24T17:33:48.319Z",
                  "interests": [

                  ],
                  "skills": [

                  ]
                }
              ]
            },
            "description": "Return all the available contacts"
          }
        },
        "tags": [
          "users"
        ],
        "summary": "Index Users",
        "consumes": [
          "application/json"
        ],
        "produces": [
          "application/json"
        ]
      },
      "post": {
        "responses": {
          "201": {
            "examples": {
              "application/json": {
                "msg": "Thank you for signing up, please confirm your email address to continue"
              }
            },
            "description": "User created"
          },
          "422": {
            "examples": {
              "application/json": {
                "data": "User already exists"
              }
            },
            "description": "User already exist"
          }
        },
        "parameters": [
          {
            "name": "data",
            "in": "body",
            "required": true,
            "schema": {
              "$ref": "#/definitions/createUser"
            }
          }
        ],
        "tags": [
          "users"
        ],
        "summary": "Create a new user",
        "consumes": [
          "application/json"
        ],
        "produces": [
          "application/json"
        ]
      }
    },
    "/api/users/{id}": {
      "get": {
        "responses": {
          "200": {
            "examples": {
              "application/json": {
                "id": 9,
                "email": "test7@user.com",
                "first_name": "firstname8",
                "last_name": "lastname8",
                "nickname": "nichname8",
                "age": "9.0",
                "country": "France",
                "city": "Paris",
                "address": "8 rue du test",
                "phone_number": null,
                "bio": "8 bio is a bio",
                "status": null,
                "sign_in_count": 0,
                "confirmed_at": "2019-03-24T17:33:48.926Z",
                "interests": [

                ],
                "skills": [

                ]
              }
            },
            "description": "Return the selected user"
          },
          "404": {
            "examples": {
              "application/json": {
                "message": "Couldn't find User with 'id'=999"
              }
            },
            "description": "User not found"
          }
        },
        "parameters": [
          {
            "name": "id",
            "in": "path",
            "type": "integer",
            "required": true,
            "description": "User ID"
          }
        ],
        "tags": [
          "users"
        ],
        "summary": "Get User",
        "consumes": [
          "application/json"
        ],
        "produces": [
          "application/json"
        ]
      },
      "put": {
        "responses": {
          "200": {
            "examples": {
              "application/json": {
                "data": "User updated"
              }
            },
            "description": "Update the selected user"
          }
        },
        "parameters": [
          {
            "name": "id",
            "in": "path",
            "type": "integer",
            "required": true,
            "description": "User ID"
          },
          {
            "name": "data",
            "in": "body",
            "schema": {
              "$ref": "#/definitions/updateUser"
            }
          }
        ],
        "tags": [
          "users"
        ],
        "summary": "Update User",
        "consumes": [
          "application/json"
        ],
        "produces": [
          "application/json"
        ]
      },
      "delete": {
        "responses": {
          "200": {
            "examples": {
              "application/json": {
                "id": 13,
                "email": "test11@user.com",
                "first_name": "firstname12",
                "last_name": "lastname12",
                "nickname": "nichname12",
                "age": "18.0",
                "country": "France",
                "city": "Paris",
                "address": "12 rue du test",
                "phone_number": null,
                "bio": "12 bio is a bio",
                "status": "archived",
                "sign_in_count": 0,
                "confirmed_at": "2019-03-24T17:33:51.039Z",
                "interests": [

                ],
                "skills": [

                ]
              }
            },
            "description": "The user has been deleted"
          }
        },
        "parameters": [
          {
            "name": "id",
            "in": "path",
            "type": "integer",
            "required": true,
            "description": "User ID"
          }
        ],
        "tags": [
          "users"
        ],
        "summary": "Delete user",
        "consumes": [
          "application/json"
        ],
        "produces": [
          "application/json"
        ]
      }
    },
    "/api/users/{id}/follow": {
      "put": {
        "responses": {
          "200": {
            "examples": {
              "application/json": {
                "data": "Followed successfully"
              }
            },
            "description": "The user has been followed"
          }
        },
        "parameters": [
          {
            "name": "id",
            "in": "path",
            "type": "integer",
            "required": true,
            "description": "User ID"
          },
          {
            "name": "data",
            "in": "body",
            "schema": {
              "$ref": "#/definitions/followUser"
            }
          }
        ],
        "tags": [
          "users"
        ],
        "summary": "Follow a user",
        "consumes": [
          "application/json"
        ],
        "produces": [
          "application/json"
        ]
      }
    }
  }
}
